JU-F22-MSDSSB-DSOC-02 - W#13: Probability distributions, Cluster Analysis
…
From https://allisonhorst.com/k-means-clustering

Calculate k-means clustering in R

The OWiD corona country indicator dataset from Week 12:

owid_inds

# A tibble: 158 × 14
   iso_code continent    locat…¹ popul…² popul…³ media…⁴ aged_…⁵ aged_…⁶ gdp_p…⁷
   <chr>    <chr>        <chr>     <dbl>   <dbl>   <dbl>   <dbl>   <dbl>   <dbl>
 1 AFG      Asia         Afghan…  4.01e7   54.4     18.6    2.58    1.34   1804.
 2 ALB      Europe       Albania  2.85e6  105.      38     13.2     8.64  11803.
 3 DZA      Africa       Algeria  4.42e7   17.3     29.1    6.21    3.86  13914.
 4 ATG      North Ameri… Antigu…  9.32e4  232.      32.1    6.93    4.63  21491.
 5 ARG      South Ameri… Argent…  4.53e7   16.2     31.9   11.2     7.44  18934.
 6 ARM      Asia         Armenia  2.79e6  103.      35.7   11.2     7.57   8788.
 7 AUS      Oceania      Austra…  2.59e7    3.20    37.9   15.5    10.1   44649.
 8 AUT      Europe       Austria  8.92e6  107.      44.4   19.2    13.7   45437.
 9 AZE      Asia         Azerba…  1.03e7  119.      32.4    6.02    3.87  15847.
10 BHS      North Ameri… Bahamas  4.08e5   39.5     34.3    9.00    5.2   27718.
# … with 148 more rows, 5 more variables: cardiovasc_death_rate <dbl>,
#   diabetes_prevalence <dbl>, hospital_beds_per_thousand <dbl>,
#   life_expectancy <dbl>, human_development_index <dbl>, and abbreviated
#   variable names ¹​location, ²​population, ³​population_density, ⁴​median_age,
#   ⁵​aged_65_older, ⁶​aged_70_older, ⁷​gdp_per_capita
…
Computer solutions for different numbers of cluster \(k\)

kclusts <- tibble(k = 1:9) |>
  mutate(
    kclust = map(k, ~kmeans(owid_BoxCoxData, .x)), # kmeans for k=1:9
    tidied = map(kclust, tidy), # tidy extracts the centroids here 
    glanced = map(kclust, glance), # 
    augmented = map(kclust, augment, owid_BoxCoxData)
  ) # This is large data frame with nested objects as entries. We unnest next

clusters <- kclusts |> unnest(cols = c(tidied))
clusters

# A tibble: 45 × 18
       k kclust   population populatio…¹ median_…² aged_65…³ aged_70…⁴ gdp_per…⁵
   <int> <list>        <dbl>       <dbl>     <dbl>     <dbl>     <dbl>     <dbl>
 1     1 <kmeans>  -1.29e-16   -5.34e-17  4.41e-16  5.06e-17  3.79e-17 -1.41e-17
 2     2 <kmeans>  -9.04e- 2    1.57e- 1  8.02e- 1  7.78e- 1  7.65e- 1  6.77e- 1
 3     2 <kmeans>   9.51e- 2   -1.65e- 1 -8.43e- 1 -8.18e- 1 -8.04e- 1 -7.12e- 1
 4     3 <kmeans>   1.33e- 1    7.99e- 2  1.14e+ 0  1.19e+ 0  1.19e+ 0  9.09e- 1
 5     3 <kmeans>  -3.50e- 1   -1.28e- 1 -4.15e- 2 -2.09e- 1 -2.15e- 1  1.06e- 1
 6     3 <kmeans>   3.38e- 1    8.95e- 2 -1.16e+ 0 -9.85e- 1 -9.71e- 1 -1.11e+ 0
 7     4 <kmeans>  -3.27e- 1   -7.88e- 2 -1.35e- 1 -3.16e- 1 -3.27e- 1  1.30e- 1
 8     4 <kmeans>  -7.10e- 2   -3.43e- 1  9.01e- 1  8.73e- 1  8.86e- 1  2.52e- 1
 9     4 <kmeans>   3.38e- 1    8.95e- 2 -1.16e+ 0 -9.85e- 1 -9.71e- 1 -1.11e+ 0
10     4 <kmeans>   1.07e- 1    2.29e- 1  1.14e+ 0  1.21e+ 0  1.20e+ 0  1.10e+ 0
# … with 35 more rows, 10 more variables: cardiovasc_death_rate <dbl>,
#   diabetes_prevalence <dbl>, hospital_beds_per_thousand <dbl>,
#   life_expectancy <dbl>, human_development_index <dbl>, size <int>,
#   withinss <dbl>, cluster <fct>, glanced <list>, augmented <list>, and
#   abbreviated variable names ¹​population_density, ²​median_age,
#   ³​aged_65_older, ⁴​aged_70_older, ⁵​gdp_per_capita
…
assignments <- kclusts |> unnest(cols = c(augmented))
assignments

# A tibble: 1,422 × 16
       k kclust   tidied   glanced  population populat…¹ media…² aged_…³ aged_…⁴
   <int> <list>   <list>   <list>        <dbl>     <dbl>   <dbl>   <dbl>   <dbl>
 1     1 <kmeans> <tibble> <tibble>     0.789     -0.270  -1.47  -1.37   -1.49  
 2     1 <kmeans> <tibble> <tibble>    -0.601      0.219   0.789  0.849   0.868 
 3     1 <kmeans> <tibble> <tibble>     0.842     -1.10   -0.188 -0.191  -0.172 
 4     1 <kmeans> <tibble> <tibble>    -2.20       0.823   0.150 -0.0405  0.0610
 5     1 <kmeans> <tibble> <tibble>     0.856     -1.15    0.128  0.621   0.673 
 6     1 <kmeans> <tibble> <tibble>    -0.612      0.205   0.544  0.625   0.695 
 7     1 <kmeans> <tibble> <tibble>     0.549     -2.28    0.778  1.08    1.08  
 8     1 <kmeans> <tibble> <tibble>    -0.0193     0.232   1.45   1.38    1.48  
 9     1 <kmeans> <tibble> <tibble>     0.0565     0.316   0.184 -0.234  -0.167 
10     1 <kmeans> <tibble> <tibble>    -1.53      -0.506   0.392  0.318   0.209 
# … with 1,412 more rows, 7 more variables: gdp_per_capita <dbl>,
#   cardiovasc_death_rate <dbl>, diabetes_prevalence <dbl>,
#   hospital_beds_per_thousand <dbl>, life_expectancy <dbl>,
#   human_development_index <dbl>, .cluster <fct>, and abbreviated variable
#   names ¹​population_density, ²​median_age, ³​aged_65_older, ⁴​aged_70_older
…
Country list

clustcont

# A tibble: 158 × 3
   .cluster continent location              
   <fct>    <chr>     <chr>                 
 1 1        Asia      Armenia               
 2 1        Asia      Azerbaijan            
 3 1        Asia      China                 
 4 1        Asia      Georgia               
 5 1        Asia      Kazakhstan            
 6 1        Europe    Albania               
 7 1        Europe    Belarus               
 8 1        Europe    Bosnia and Herzegovina
 9 1        Europe    Bulgaria              
10 1        Europe    Croatia               
# … with 148 more rows
…
