JU-F22-MSDSSB-DSOC-02 - W#4 Data import, data wrangling
…
Data subsetting

Select a sinlge colum

hotels |> select(lead_time)     

# A tibble: 119,390 × 1
   lead_time
       <dbl>
 1       342
 2       737
 3         7
 4        13
 5        14
 6        14
 7         0
 8         9
 9        85
10        75
# … with 119,380 more rows

Note: select(hotels, lead_time) is identical.

In hotel business, lead time is the time betweeen booking and arrival.

Select more columns

hotels |> select(hotel, lead_time)     

# A tibble: 119,390 × 2
   hotel        lead_time
   <chr>            <dbl>
 1 Resort Hotel       342
 2 Resort Hotel       737
 3 Resort Hotel         7
 4 Resort Hotel        13
 5 Resort Hotel        14
 6 Resort Hotel        14
 7 Resort Hotel         0
 8 Resort Hotel         9
 9 Resort Hotel        85
10 Resort Hotel        75
# … with 119,380 more rows

Note that hotel is a variable, but hotels the data frame object name

Select helper starts_with

hotels |> select(starts_with("arrival"))

# A tibble: 119,390 × 4
   arrival_date_year arrival_date_month arrival_date_week_number arrival_date_…¹
               <dbl> <chr>                                 <dbl>           <dbl>
 1              2015 July                                     27               1
 2              2015 July                                     27               1
 3              2015 July                                     27               1
 4              2015 July                                     27               1
 5              2015 July                                     27               1
 6              2015 July                                     27               1
 7              2015 July                                     27               1
 8              2015 July                                     27               1
 9              2015 July                                     27               1
10              2015 July                                     27               1
# … with 119,380 more rows, and abbreviated variable name
#   ¹​arrival_date_day_of_month

Bring columns to the front

hotels |> select(hotel, market_segment, children, everything())

# A tibble: 119,390 × 32
   hotel marke…¹ child…² is_ca…³ lead_…⁴ arriv…⁵ arriv…⁶ arriv…⁷ arriv…⁸ stays…⁹
   <chr> <chr>     <dbl>   <dbl>   <dbl>   <dbl> <chr>     <dbl>   <dbl>   <dbl>
 1 Reso… Direct        0       0     342    2015 July         27       1       0
 2 Reso… Direct        0       0     737    2015 July         27       1       0
 3 Reso… Direct        0       0       7    2015 July         27       1       0
 4 Reso… Corpor…       0       0      13    2015 July         27       1       0
 5 Reso… Online…       0       0      14    2015 July         27       1       0
 6 Reso… Online…       0       0      14    2015 July         27       1       0
 7 Reso… Direct        0       0       0    2015 July         27       1       0
 8 Reso… Direct        0       0       9    2015 July         27       1       0
 9 Reso… Online…       0       1      85    2015 July         27       1       0
10 Reso… Offlin…       0       1      75    2015 July         27       1       0
# … with 119,380 more rows, 22 more variables: stays_in_week_nights <dbl>,
#   adults <dbl>, babies <dbl>, meal <chr>, country <chr>,
#   distribution_channel <chr>, is_repeated_guest <dbl>,
#   previous_cancellations <dbl>, previous_bookings_not_canceled <dbl>,
#   reserved_room_type <chr>, assigned_room_type <chr>, booking_changes <dbl>,
#   deposit_type <chr>, agent <chr>, company <chr>, days_in_waiting_list <dbl>,
#   customer_type <chr>, adr <dbl>, required_car_parking_spaces <dbl>, …
…
filter for rows with certain criteria

hotels |> filter(hotel == "City Hotel")

# A tibble: 79,330 × 32
   hotel  is_ca…¹ lead_…² arriv…³ arriv…⁴ arriv…⁵ arriv…⁶ stays…⁷ stays…⁸ adults
   <chr>    <dbl>   <dbl>   <dbl> <chr>     <dbl>   <dbl>   <dbl>   <dbl>  <dbl>
 1 City …       0       6    2015 July         27       1       0       2      1
 2 City …       1      88    2015 July         27       1       0       4      2
 3 City …       1      65    2015 July         27       1       0       4      1
 4 City …       1      92    2015 July         27       1       2       4      2
 5 City …       1     100    2015 July         27       2       0       2      2
 6 City …       1      79    2015 July         27       2       0       3      2
 7 City …       0       3    2015 July         27       2       0       3      1
 8 City …       1      63    2015 July         27       2       1       3      1
 9 City …       1      62    2015 July         27       2       2       3      2
10 City …       1      62    2015 July         27       2       2       3      2
# … with 79,320 more rows, 22 more variables: children <dbl>, babies <dbl>,
#   meal <chr>, country <chr>, market_segment <chr>,
#   distribution_channel <chr>, is_repeated_guest <dbl>,
#   previous_cancellations <dbl>, previous_bookings_not_canceled <dbl>,
#   reserved_room_type <chr>, assigned_room_type <chr>, booking_changes <dbl>,
#   deposit_type <chr>, agent <chr>, company <chr>, days_in_waiting_list <dbl>,
#   customer_type <chr>, adr <dbl>, required_car_parking_spaces <dbl>, …

filter for multiple criteria

hotels |> filter(
  babies >= 1,
  children >= 1, 
  ) |> 
  select(hotel, adults, babies, children)

# A tibble: 175 × 4
   hotel        adults babies children
   <chr>         <dbl>  <dbl>    <dbl>
 1 Resort Hotel      2      1        1
 2 Resort Hotel      2      1        1
 3 Resort Hotel      2      1        1
 4 Resort Hotel      2      1        1
 5 Resort Hotel      2      1        1
 6 Resort Hotel      2      1        1
 7 Resort Hotel      2      1        1
 8 Resort Hotel      2      1        2
 9 Resort Hotel      2      1        2
10 Resort Hotel      1      1        2
# … with 165 more rows

Comma-separated conditions are interpreted as all these should be fulfilled.

This is identical to the logical AND &.

hotels |> filter(babies >= 1 & children >= 1)

filter for complexer criteria

hotels |> filter(
  babies >= 1 | children >= 1
  ) |> 
  select(hotel, adults, babies, children)

# A tibble: 9,332 × 4
   hotel        adults babies children
   <chr>         <dbl>  <dbl>    <dbl>
 1 Resort Hotel      2      0        1
 2 Resort Hotel      2      0        2
 3 Resort Hotel      2      0        2
 4 Resort Hotel      2      0        2
 5 Resort Hotel      2      0        1
 6 Resort Hotel      2      0        1
 7 Resort Hotel      1      0        2
 8 Resort Hotel      2      0        2
 9 Resort Hotel      2      1        0
10 Resort Hotel      2      1        0
# … with 9,322 more rows
…
Data Transformation

Create a new variable with mutate

hotels |>
  mutate(little_ones = children + babies) |>
  select(children, babies, little_ones) |>
  arrange(desc(little_ones)) # This sorts in descending order. See the big thing!

# A tibble: 119,390 × 3
   children babies little_ones
      <dbl>  <dbl>       <dbl>
 1       10      0          10
 2        0     10          10
 3        0      9           9
 4        2      1           3
 5        2      1           3
 6        2      1           3
 7        3      0           3
 8        2      1           3
 9        2      1           3
10        3      0           3
# … with 119,380 more rows
…
# A tibble: 2 × 2
  hotel        mean_adr
  <chr>           <dbl>
1 City Hotel      105. 
2 Resort Hotel     95.0

Look at the grouping attributes:

hotels |>
  group_by(hotel)

# A tibble: 119,390 × 32
# Groups:   hotel [2]
   hotel  is_ca…¹ lead_…² arriv…³ arriv…⁴ arriv…⁵ arriv…⁶ stays…⁷ stays…⁸ adults
   <chr>    <dbl>   <dbl>   <dbl> <chr>     <dbl>   <dbl>   <dbl>   <dbl>  <dbl>
 1 Resor…       0     342    2015 July         27       1       0       0      2
 2 Resor…       0     737    2015 July         27       1       0       0      2
 3 Resor…       0       7    2015 July         27       1       0       1      1
 4 Resor…       0      13    2015 July         27       1       0       1      1
 5 Resor…       0      14    2015 July         27       1       0       2      2
 6 Resor…       0      14    2015 July         27       1       0       2      2
 7 Resor…       0       0    2015 July         27       1       0       2      2
 8 Resor…       0       9    2015 July         27       1       0       2      2
 9 Resor…       1      85    2015 July         27       1       0       3      2
10 Resor…       1      75    2015 July         27       1       0       3      2
# … with 119,380 more rows, 22 more variables: children <dbl>, babies <dbl>,
#   meal <chr>, country <chr>, market_segment <chr>,
#   distribution_channel <chr>, is_repeated_guest <dbl>,
#   previous_cancellations <dbl>, previous_bookings_not_canceled <dbl>,
#   reserved_room_type <chr>, assigned_room_type <chr>, booking_changes <dbl>,
#   deposit_type <chr>, agent <chr>, company <chr>, days_in_waiting_list <dbl>,
#   customer_type <chr>, adr <dbl>, required_car_parking_spaces <dbl>, …
…
