JU-F22-MSDSSB-DSOC-02 - W#9 Classification Problems, Logisitc Regression, Prediction
…
# A tibble: 6 × 2
  .pred_0 .pred_1
    <dbl>   <dbl>
1   0.993 0.00709
2   0.998 0.00181
3   0.981 0.0191 
4   0.999 0.00124
5   0.988 0.0121 
6   0.830 0.170  

Predicting spam (default)

predict(email_fit, test_data) # Would be type = "class"

# A tibble: 785 × 1
   .pred_class
   <fct>      
 1 0          
 2 0          
 3 0          
 4 0          
 5 0          
 6 0          
 7 0          
 8 0          
 9 0          
10 0          
# … with 775 more rows

Relate back to the model concept

email_pred <- 
 predict(email_fit, test_data, type = "prob") |>
 select(spam_prob = .pred_1) |> 
 mutate(spam_logodds = 
         predict(email_fit, test_data, type = "raw"), 
        spam_odds = exp(spam_logodds)) |> 
 bind_cols(predict(email_fit, test_data)) |> 
 # Append real data
 bind_cols(test_data |> select(spam)) 
email_pred

# A tibble: 785 × 5
   spam_prob spam_logodds spam_odds .pred_class spam 
       <dbl>        <dbl>     <dbl> <fct>       <fct>
 1   0.00709        -4.94   0.00714 0           0    
 2   0.00181        -6.31   0.00181 0           0    
 3   0.0191         -3.94   0.0195  0           0    
 4   0.00124        -6.69   0.00124 0           0    
 5   0.0121         -4.40   0.0123  0           0    
 6   0.170          -1.59   0.204   0           0    
 7   0.0410         -3.15   0.0427  0           0    
 8   0.139          -1.83   0.161   0           0    
 9   0.0617         -2.72   0.0657  0           0    
10   0.0983         -2.22   0.109   0           0    
# … with 775 more rows
…
From which we can compute the odds.

From which the probability is computed. Here it is done by predict.

The .pred_class prediction is when the probability > 0.5.

What does it mean for the odds and the log-odds?

Answers: odds > 1, log-odds > 0

Another look

email_pred |> arrange(desc(spam_prob)) |> print(n = 20)

# A tibble: 785 × 5
   spam_prob spam_logodds spam_odds .pred_class spam 
       <dbl>        <dbl>     <dbl> <fct>       <fct>
 1     0.903       2.23       9.29  1           1    
 2     0.833       1.60       4.98  1           0    
 3     0.825       1.55       4.71  1           1    
 4     0.733       1.01       2.75  1           1    
 5     0.683       0.766      2.15  1           1    
 6     0.626       0.517      1.68  1           1    
 7     0.614       0.464      1.59  1           0    
 8     0.597       0.392      1.48  1           1    
 9     0.538       0.153      1.17  1           1    
10     0.537       0.148      1.16  1           0    
11     0.510       0.0404     1.04  1           0    
12     0.491      -0.0345     0.966 0           0    
13     0.490      -0.0407     0.960 0           0    
14     0.489      -0.0453     0.956 0           1    
15     0.483      -0.0698     0.933 0           1    
16     0.473      -0.107      0.899 0           0    
17     0.463      -0.150      0.861 0           0    
18     0.457      -0.174      0.840 0           0    
19     0.447      -0.212      0.809 0           0    
20     0.447      -0.214      0.808 0           1    
# … with 765 more rows
…
Make predictions for test data

email_pred <- predict(email_fit, test_data, type = "prob") |> 
  bind_cols(test_data) 

email_pred

# A tibble: 785 × 23
   .pred_0  .pred_1 spam  to_mul…¹ from     cc sent_…² time                image
     <dbl>    <dbl> <fct> <fct>    <fct> <int> <fct>   <dttm>              <dbl>
 1   0.993 0.00653  0     1        1         0 1       2012-01-01 18:55:06     0
 2   0.998 0.00169  0     0        1         1 1       2012-01-01 20:38:32     0
 3   0.987 0.0127   0     0        1         0 0       2012-01-02 06:42:16     0
 4   0.999 0.000825 0     0        1         1 0       2012-01-02 16:12:51     0
 5   0.991 0.00876  0     0        1         4 0       2012-01-02 17:45:36     0
 6   0.878 0.122    0     0        1         0 0       2012-01-02 22:55:03     0
 7   0.959 0.0414   0     0        1         0 0       2012-01-03 02:07:17     0
 8   0.852 0.148    0     0        1         0 0       2012-01-03 06:41:35     0
 9   0.938 0.0619   0     0        1         0 0       2012-01-03 17:02:35     0
10   0.896 0.104    0     0        1         0 0       2012-01-03 12:14:51     0
# … with 775 more rows, 14 more variables: attach <dbl>, dollar <dbl>,
#   winner <fct>, inherit <dbl>, viagra <dbl>, password <dbl>, num_char <dbl>,
#   line_breaks <int>, format <fct>, re_subj <fct>, exclaim_subj <dbl>,
#   urgent_subj <fct>, exclaim_mess <dbl>, number <fct>, and abbreviated
#   variable names ¹​to_multiple, ²​sent_email
…
simple_email_rec <- recipe(
 spam ~ num_char,          # formula
 data = train_data  # data to use for cataloguing names and types of variables
)
simple_email_pred <- 
 workflow() |> 
 add_model(email_mod) |> 
 add_recipe(simple_email_rec) |> 
 fit(data = train_data) |> 
 predict(test_data, type = "prob") |> 
 bind_cols(test_data |> select(spam,num_char,time)) 
simple_email_pred 

# A tibble: 785 × 5
   .pred_0 .pred_1 spam  num_char time               
     <dbl>   <dbl> <fct>    <dbl> <dttm>             
 1   0.889  0.111  0        4.84  2012-01-01 18:55:06
 2   0.936  0.0644 0       15.1   2012-01-01 20:38:32
 3   0.945  0.0547 0       18.0   2012-01-02 06:42:16
 4   0.989  0.0113 0       45.8   2012-01-02 16:12:51
 5   0.922  0.0784 0       11.4   2012-01-02 17:45:36
 6   0.868  0.132  0        1.48  2012-01-02 22:55:03
 7   0.933  0.0667 0       14.4   2012-01-03 02:07:17
 8   0.864  0.136  0        0.978 2012-01-03 06:41:35
 9   0.905  0.0953 0        7.79  2012-01-03 17:02:35
10   0.864  0.136  0        0.978 2012-01-03 12:14:51
# … with 775 more rows
…
